…
est
```

    ## # A tibble: 5,000 x 2
    ##    rhat_sq log_est
    ##      <dbl>   <dbl>
    ##  1   0.899    2.04
    ##  2   0.913    2.00
    ##  3   0.931    1.98
    ##  4   0.917    1.97
    ##  5   0.915    2.01
    ##  6   0.917    2.01
    ##  7   0.917    2.00
    ##  8   0.911    1.97
    ##  9   0.908    2.02
    ## 10   0.905    2.00
    ## # ... with 4,990 more rows
…
